{
  "project_info": {
    "project_number": "814210321213",
    "firebase_url": "https://home-security-app-6b319.firebaseio.com",
    "project_id": "home-security-app-6b319",
    "storage_bucket": "home-security-app-6b319.appspot.com"
  },
  "client": [
    {
      "client_info": {
        "mobilesdk_app_id": "1:814210321213:android:a795f630ab4f90353fd354",
        "android_client_info": {
          "package_name": "com.example.homesecurityapp"
        }
      },
      "oauth_client": [
        {
          "client_id": "814210321213-35shcf8i2cel5vmu2j177f1knvs0t6ru.apps.googleusercontent.com",
          "client_type": 3
        }
      ],
      "api_key": [
        {
          "current_key": "AIzaSyBJ-XVxtdOKj6HZXSAWo8COLYjU5d9ONCg"
        }
      ],
      "services": {
        "appinvite_service": {
          "other_platform_oauth_client": [
            {
              "client_id": "814210321213-35shcf8i2cel5vmu2j177f1knvs0t6ru.apps.googleusercontent.com",
              "client_type": 3
            }
          ]
        }
      }
    }
  ],
  "configuration_version": "1"
}